,TARGETID,ISLAND,TILE
0,6.116469126547377e+17,1.0,65008.0
1,3.518576076416736e+16,1.0,66014.0
2,6.11646507015209e+17,1.0,66014.0
3,3.519116956664134e+16,1.0,66019.0
4,3.519116957083465e+16,1.0,66019.0
5,3.519117370641848e+16,1.0,66019.0
6,3.51911778294191e+16,1.0,66019.0
7,3.519117782941999e+16,1.0,66019.0
8,6.116519218742568e+17,1.0,66019.0
9,6.116519260140351e+17,1.0,66019.0
10,6.116519260182285e+17,1.0,66019.0
11,6.116519301328407e+17,1.0,66019.0
12,6.116519301328416e+17,1.0,66019.0
13,3.518617191081643e+16,1.0,65008.0
14,3.518617191501393e+16,1.0,65008.0
15,6.11646918434489e+17,1.0,65008.0
16,6.116469184344891e+17,1.0,65008.0
17,6.116469184344893e+17,1.0,65008.0
18,6.116469184344895e+17,1.0,65008.0
19,6.116469242058516e+17,1.0,65008.0
20,6.116469242100453e+17,1.0,65008.0
21,6.116469242100453e+17,1.0,65008.0
22,6.116469242100454e+17,1.0,65008.0
23,6.116469242100456e+17,1.0,65008.0
24,6.116469242100456e+17,1.0,65008.0
25,6.116469242100457e+17,1.0,65008.0
26,6.116469242100458e+17,1.0,65008.0
27,6.116469242100458e+17,1.0,65008.0
28,6.11646924210046e+17,1.0,65008.0
29,6.116469242100461e+17,1.0,65008.0
30,6.116469242142394e+17,1.0,65008.0
31,6.116469242142394e+17,1.0,65008.0
32,6.116469242142395e+17,1.0,65008.0
33,6.116469242142396e+17,1.0,65008.0
34,6.116469242142396e+17,1.0,65008.0
35,6.116469242142397e+17,1.0,65008.0
36,6.116469242142399e+17,1.0,65008.0
37,6.116469242184337e+17,1.0,65008.0
38,6.116469242184346e+17,1.0,65008.0
39,6.116469242184347e+17,1.0,65008.0
40,6.116469242226286e+17,1.0,65008.0
41,6.116469242226287e+17,1.0,65008.0
42,6.116469242226289e+17,1.0,65008.0
43,6.116469242226289e+17,1.0,65008.0
44,6.11646924222629e+17,1.0,65008.0
45,6.116469299814074e+17,1.0,65008.0
46,6.116469299814076e+17,1.0,65008.0
47,6.116469299856015e+17,1.0,65008.0
48,6.116469299856027e+17,1.0,65008.0
49,6.116469299939901e+17,1.0,65008.0
50,6.116469299939904e+17,1.0,65008.0
51,6.116469299939907e+17,1.0,65008.0
52,6.116469357527697e+17,1.0,65008.0
53,6.116469357527697e+17,1.0,65008.0
54,6.116469357527698e+17,1.0,65008.0
55,6.116469357527698e+17,1.0,65008.0
56,6.116469357527698e+17,1.0,65008.0
57,6.116469357527699e+17,1.0,65008.0
58,6.116469357527699e+17,1.0,65008.0
59,6.116469357527699e+17,1.0,65008.0
60,6.116469357527699e+17,1.0,65008.0
61,6.116469357527699e+17,1.0,65008.0
62,6.1164693575277e+17,1.0,65008.0
63,6.1164693575277e+17,1.0,65008.0
64,6.116469357527702e+17,1.0,65008.0
65,6.116469357527703e+17,1.0,65008.0
66,6.116469357569641e+17,1.0,65008.0
67,6.116469357569641e+17,1.0,65008.0
68,6.116469357569641e+17,1.0,65008.0
69,6.116469357569641e+17,1.0,65008.0
70,6.116469357569641e+17,1.0,65008.0
71,6.116469357569642e+17,1.0,65008.0
72,6.116469357569644e+17,1.0,65008.0
73,6.116469357569645e+17,1.0,65008.0
74,6.116469357569646e+17,1.0,65008.0
75,1.1529215046236337e+18,1.0,65008.0
76,1.1529215046236344e+18,1.0,65008.0
77,1.1529215046236344e+18,1.0,65008.0
78,3.5190939412597704e+16,1.0,66000.0
79,3.5190939416790544e+16,1.0,66000.0
80,3.519093941679084e+16,1.0,66000.0
81,3.5190939416791108e+16,1.0,66000.0
82,3.519093941679111e+16,1.0,66000.0
83,3.5190939416791868e+16,1.0,66000.0
84,3.519093941679189e+16,1.0,66000.0
85,3.5190939416791984e+16,1.0,66000.0
86,3.519093941679252e+16,1.0,66000.0
87,3.519093941679253e+16,1.0,66000.0
88,3.5190939416792744e+16,1.0,66000.0
89,3.519094440801087e+16,1.0,66000.0
90,3.519094440801115e+16,1.0,66000.0
91,3.519094440801122e+16,1.0,66000.0
92,3.519094440801144e+16,1.0,66000.0
93,3.5190944408011776e+16,1.0,66000.0
94,3.5190944408012308e+16,1.0,66000.0
95,3.5190944408012444e+16,1.0,66000.0
96,3.519094440801286e+16,1.0,66000.0
97,3.5190944408012948e+16,1.0,66000.0
98,3.519094440801415e+16,1.0,66000.0
99,3.5190944408014484e+16,1.0,66000.0
100,3.519094440801508e+16,1.0,66000.0
101,3.519094441220558e+16,1.0,66000.0
102,3.5190944412206028e+16,1.0,66000.0
103,3.519094441640189e+16,1.0,66000.0
104,3.5190944416401976e+16,1.0,66000.0
105,3.5190944416402424e+16,1.0,66000.0
106,3.519094441640288e+16,1.0,66000.0
107,3.519094441640312e+16,1.0,66000.0
108,3.51909444205954e+16,1.0,66000.0
109,3.5190944420595548e+16,1.0,66000.0
110,3.519094442059578e+16,1.0,66000.0
111,3.519094442059635e+16,1.0,66000.0
112,3.5190944420596404e+16,1.0,66000.0
113,3.5190944420596844e+16,1.0,66000.0
114,3.5190944420597224e+16,1.0,66000.0
115,3.5190949386650068e+16,1.0,66000.0
116,3.519094939084756e+16,1.0,66000.0
117,3.519094939084798e+16,1.0,66000.0
118,3.5190949390848e+16,1.0,66000.0
119,3.519094939084812e+16,1.0,66000.0
120,3.519094939084827e+16,1.0,66000.0
121,3.5190954356899908e+16,1.0,66000.0
122,3.51909543569e+16,1.0,66000.0
123,3.519095435690017e+16,1.0,66000.0
124,3.519095435690115e+16,1.0,66000.0
125,6.116516917160192e+17,1.0,66000.0
126,6.116516917202132e+17,1.0,66000.0
127,6.116516967114346e+17,1.0,66000.0
128,6.116516967114349e+17,1.0,66000.0
129,6.116516967114349e+17,1.0,66000.0
130,6.11651696711435e+17,1.0,66000.0
131,6.116516967114351e+17,1.0,66000.0
132,6.116516967156287e+17,1.0,66000.0
133,6.116516967156287e+17,1.0,66000.0
134,6.116516967198239e+17,1.0,66000.0
135,6.116516967240179e+17,1.0,66000.0
136,6.116516967240179e+17,1.0,66000.0
137,6.116517016942683e+17,1.0,66000.0
138,6.116517016942684e+17,1.0,66000.0
139,6.11651701698462e+17,1.0,66000.0
140,6.116517016984622e+17,1.0,66000.0
141,6.116517016984628e+17,1.0,66000.0
142,6.11651701702656e+17,1.0,66000.0
143,6.116517017026563e+17,1.0,66000.0
144,6.116517017026572e+17,1.0,66000.0
145,6.116517066561292e+17,1.0,66000.0
146,6.116517066561292e+17,1.0,66000.0
147,6.116517066603235e+17,1.0,66000.0
148,6.116517066603236e+17,1.0,66000.0
149,6.116517066603236e+17,1.0,66000.0
150,6.11651706664518e+17,1.0,66000.0
151,3.518575470759577e+16,1.0,66014.0
152,3.518575470759596e+16,1.0,66014.0
153,3.518575471179016e+16,1.0,66014.0
154,3.518576074319679e+16,1.0,66014.0
155,3.518576074319705e+16,1.0,66014.0
156,3.5185760743197468e+16,1.0,66014.0
157,3.518576074319807e+16,1.0,66014.0
158,3.5185760743198384e+16,1.0,66014.0
159,3.518576074319923e+16,1.0,66014.0
160,3.51857607431996e+16,1.0,66014.0
161,3.5185760743199936e+16,1.0,66014.0
162,3.518576074738959e+16,1.0,66014.0
163,3.5185760747390068e+16,1.0,66014.0
164,3.518576074739133e+16,1.0,66014.0
165,3.518576074739192e+16,1.0,66014.0
166,3.518576075158329e+16,1.0,66014.0
167,3.5185760751583544e+16,1.0,66014.0
168,3.5185760751583776e+16,1.0,66014.0
169,3.518576075158753e+16,1.0,66014.0
170,3.5185760751587564e+16,1.0,66014.0
171,3.5185760755780664e+16,1.0,66014.0
172,3.5185760755780944e+16,1.0,66014.0
173,3.518576075578131e+16,1.0,66014.0
174,3.5185760755781576e+16,1.0,66014.0
175,3.518576678299264e+16,1.0,66014.0
176,3.518576678299282e+16,1.0,66014.0
177,3.518576678299385e+16,1.0,66014.0
178,3.518576679138121e+16,1.0,66014.0
179,3.518576679138147e+16,1.0,66014.0
180,3.5185766791382296e+16,1.0,66014.0
181,3.5185772822790504e+16,1.0,66014.0
182,3.5185772822791296e+16,1.0,66014.0
183,3.5185772822791764e+16,1.0,66014.0
184,3.5185772822792724e+16,1.0,66014.0
185,3.5185772822793668e+16,1.0,66014.0
186,3.5185772826984656e+16,1.0,66014.0
187,3.5185772826984868e+16,1.0,66014.0
188,3.518577282698495e+16,1.0,66014.0
189,3.518577282698541e+16,1.0,66014.0
190,3.5185772826986284e+16,1.0,66014.0
191,3.518577282698649e+16,1.0,66014.0
192,3.518577282698783e+16,1.0,66014.0
193,3.518577283117945e+16,1.0,66014.0
194,3.5185772831180184e+16,1.0,66014.0
195,5.76576502246671e+17,1.0,66014.0
196,6.116465070110154e+17,1.0,66014.0
197,6.116465130466188e+17,1.0,66014.0
198,6.116465130466189e+17,1.0,66014.0
199,6.11646513046619e+17,1.0,66014.0
200,6.116465130508125e+17,1.0,66014.0
201,6.116465130508127e+17,1.0,66014.0
202,6.116465130508127e+17,1.0,66014.0
203,6.116465130508129e+17,1.0,66014.0
204,6.11646513059202e+17,1.0,66014.0
205,6.116465190864159e+17,1.0,66014.0
206,6.116465190864165e+17,1.0,66014.0
207,6.116465190948047e+17,1.0,66014.0
208,6.116465190948049e+17,1.0,66014.0
209,6.116465190948049e+17,1.0,66014.0
210,6.116465190948051e+17,1.0,66014.0
211,6.116465190948051e+17,1.0,66014.0
212,6.116465190948052e+17,1.0,66014.0
213,6.116465190948052e+17,1.0,66014.0
214,6.116465190948056e+17,1.0,66014.0
215,6.116465190989988e+17,1.0,66014.0
216,6.11646519098999e+17,1.0,66014.0
217,6.116465251262141e+17,1.0,66014.0
218,6.116465251262141e+17,1.0,66014.0
219,6.116465251262143e+17,1.0,66014.0
220,6.116465251304082e+17,1.0,66014.0
221,6.116465251304082e+17,1.0,66014.0
222,6.116465251304084e+17,1.0,66014.0
223,6.116465251304087e+17,1.0,66014.0
224,6.116465251304087e+17,1.0,66014.0
225,6.116465251346024e+17,1.0,66014.0
226,6.116465251346026e+17,1.0,66014.0
227,6.116465251387972e+17,1.0,66014.0
228,3.5191177825225724e+16,1.0,66019.0
229,3.5191177825226268e+16,1.0,66019.0
230,3.519117782522682e+16,1.0,66019.0
231,3.5191177825226824e+16,1.0,66019.0
232,3.519118191467226e+16,1.0,66019.0
233,3.5191181914672668e+16,1.0,66019.0
234,3.519118191886449e+16,1.0,66019.0
235,3.519118191886541e+16,1.0,66019.0
236,3.519118191886631e+16,1.0,66019.0
237,3.519118192305791e+16,1.0,66019.0
238,3.519118192305808e+16,1.0,66019.0
239,3.519118192305817e+16,1.0,66019.0
240,3.5191181923058224e+16,1.0,66019.0
241,3.5191181923059124e+16,1.0,66019.0
242,3.519118192305993e+16,1.0,66019.0
243,3.519118192725533e+16,1.0,66019.0
244,3.519118192725556e+16,1.0,66019.0
245,3.519118192725612e+16,1.0,66019.0
246,3.51911819314499e+16,1.0,66019.0
247,3.5191181931450284e+16,1.0,66019.0
248,3.5191181931450704e+16,1.0,66019.0
249,3.5191185999922304e+16,1.0,66019.0
250,3.519118599992524e+16,1.0,66019.0
251,3.519118600411968e+16,1.0,66019.0
252,3.5191186004119784e+16,1.0,66019.0
253,3.519118600411998e+16,1.0,66019.0
254,3.5191186008309908e+16,1.0,66019.0
255,3.519118600831007e+16,1.0,66019.0
256,3.519118600831071e+16,1.0,66019.0
257,3.519118600831104e+16,1.0,66019.0
258,3.5191186008312496e+16,1.0,66019.0
259,3.519118600831273e+16,1.0,66019.0
260,3.51911860125041e+16,1.0,66019.0
261,3.519118601250469e+16,1.0,66019.0
262,3.5191186012504924e+16,1.0,66019.0
263,3.519119006000805e+16,1.0,66019.0
264,3.519119006000872e+16,1.0,66019.0
265,3.5191190060009108e+16,1.0,66019.0
266,3.519119006000921e+16,1.0,66019.0
267,3.5191190060009816e+16,1.0,66019.0
268,3.519119006001005e+16,1.0,66019.0
269,3.5191190064202324e+16,1.0,66019.0
270,3.519119006420346e+16,1.0,66019.0
271,3.5191190068396468e+16,1.0,66019.0
272,3.519119007259257e+16,1.0,66019.0
273,6.116519342180933e+17,1.0,66019.0
274,6.116519342222871e+17,1.0,66019.0
275,6.116519342222874e+17,1.0,66019.0
276,6.116519342222877e+17,1.0,66019.0
277,6.116519342264815e+17,1.0,66019.0
278,6.116519342306764e+17,1.0,66019.0
279,6.116519342348708e+17,1.0,66019.0
280,6.116519342348709e+17,1.0,66019.0
281,6.116519383033448e+17,1.0,66019.0
282,6.116519383033449e+17,1.0,66019.0
283,6.116519383117338e+17,1.0,66019.0
284,6.116519383117339e+17,1.0,66019.0
285,6.11651938311734e+17,1.0,66019.0
286,6.116519423634313e+17,1.0,66019.0
287,6.116519423634314e+17,1.0,66019.0
288,6.116519423676256e+17,1.0,66019.0
289,6.116519423676256e+17,1.0,66019.0
290,6.116519423676257e+17,1.0,66019.0
291,6.116519423718198e+17,1.0,66019.0
292,3.5185754023922708e+16,1.0,67230.0
293,3.5185754023923064e+16,1.0,67230.0
294,3.5185754023923536e+16,1.0,67230.0
295,3.518575402392372e+16,1.0,67230.0
296,3.5185754023923896e+16,1.0,67230.0
297,3.5185754023924376e+16,1.0,67230.0
298,3.5185760055332984e+16,1.0,67230.0
299,3.5185760055333304e+16,1.0,67230.0
300,3.518576005952516e+16,1.0,67230.0
301,3.5185760059525176e+16,1.0,67230.0
302,3.5185760059525416e+16,1.0,67230.0
303,3.518576005952553e+16,1.0,67230.0
304,3.518576005952599e+16,1.0,67230.0
305,3.5185760059526096e+16,1.0,67230.0
306,3.5185760059526456e+16,1.0,67230.0
307,3.5185760059527184e+16,1.0,67230.0
308,3.518576006371809e+16,1.0,67230.0
309,3.5185760063718216e+16,1.0,67230.0
310,3.518576006371825e+16,1.0,67230.0
311,3.518576006371833e+16,1.0,67230.0
312,3.5185760063718736e+16,1.0,67230.0
313,3.5185760063719256e+16,1.0,67230.0
314,3.518576006371953e+16,1.0,67230.0
315,3.5185760063719788e+16,1.0,67230.0
316,3.518576006791197e+16,1.0,67230.0
317,3.5185760067914984e+16,1.0,67230.0
318,3.518576006791542e+16,1.0,67230.0
319,3.5185760067915656e+16,1.0,67230.0
320,3.5185760067915896e+16,1.0,67230.0
321,3.5185760067916348e+16,1.0,67230.0
322,3.518576006791665e+16,1.0,67230.0
323,3.518576007211084e+16,1.0,67230.0
324,3.5185760072111424e+16,1.0,67230.0
325,3.5185766095126824e+16,1.0,67230.0
326,3.5185766095127904e+16,1.0,67230.0
327,3.5185766099321096e+16,1.0,67230.0
328,3.518576609932131e+16,1.0,67230.0
329,3.5185766103518424e+16,1.0,67230.0
330,3.518576610351891e+16,1.0,67230.0
331,3.518576610351981e+16,1.0,67230.0
332,3.518576610351999e+16,1.0,67230.0
333,3.5185766107709628e+16,1.0,67230.0
334,3.5185766107709976e+16,1.0,67230.0
335,3.5185766107710176e+16,1.0,67230.0
336,3.5185766107710224e+16,1.0,67230.0
337,3.518576610771044e+16,1.0,67230.0
338,3.5185766107710936e+16,1.0,67230.0
339,3.518576610771105e+16,1.0,67230.0
340,3.5185766107711324e+16,1.0,67230.0
341,3.518576610771135e+16,1.0,67230.0
342,3.5185766107711704e+16,1.0,67230.0
343,3.5185766107712376e+16,1.0,67230.0
344,3.5185766107712784e+16,1.0,67230.0
345,3.518576610771301e+16,1.0,67230.0
346,3.5185766107713484e+16,1.0,67230.0
347,3.5185766107713948e+16,1.0,67230.0
348,3.518576610771404e+16,1.0,67230.0
349,3.5185772139119104e+16,1.0,67230.0
350,3.5185772139119344e+16,1.0,67230.0
351,3.5185772139119536e+16,1.0,67230.0
352,3.518577213911967e+16,1.0,67230.0
353,3.5185772139119984e+16,1.0,67230.0
354,3.518577213912043e+16,1.0,67230.0
355,3.518577213912053e+16,1.0,67230.0
356,3.5185772139120804e+16,1.0,67230.0
357,3.5185772139121044e+16,1.0,67230.0
358,3.5185772139121124e+16,1.0,67230.0
359,3.5185772139121284e+16,1.0,67230.0
360,3.518577213912163e+16,1.0,67230.0
361,3.518577213912163e+16,1.0,67230.0
362,3.5185772139122096e+16,1.0,67230.0
363,3.518577214331309e+16,1.0,67230.0
364,3.518577214331325e+16,1.0,67230.0
365,3.5185772143313404e+16,1.0,67230.0
366,3.518577214331393e+16,1.0,67230.0
367,3.5185772143313944e+16,1.0,67230.0
368,3.518577214331398e+16,1.0,67230.0
369,3.5185772143314096e+16,1.0,67230.0
370,3.51857721433142e+16,1.0,67230.0
371,3.5185772143314624e+16,1.0,67230.0
372,3.5185772143314856e+16,1.0,67230.0
373,3.518577214331507e+16,1.0,67230.0
374,3.518577214331516e+16,1.0,67230.0
375,3.5185772143315344e+16,1.0,67230.0
376,3.5185772143315536e+16,1.0,67230.0
377,3.5185772143315616e+16,1.0,67230.0
378,3.5185772143315644e+16,1.0,67230.0
379,3.51857721433158e+16,1.0,67230.0
380,3.518577214331599e+16,1.0,67230.0
381,3.5185772143316104e+16,1.0,67230.0
382,3.5185772147507424e+16,1.0,67230.0
383,3.5185772147508416e+16,1.0,67230.0
384,3.518577214750888e+16,1.0,67230.0
385,3.518577215170414e+16,1.0,67230.0
386,3.5185772155897384e+16,1.0,67230.0
387,6.116465123629472e+17,1.0,67230.0
388,6.116465123629473e+17,1.0,67230.0
389,6.116465123629476e+17,1.0,67230.0
390,6.116465123671409e+17,1.0,67230.0
391,6.116465123671414e+17,1.0,67230.0
392,6.116465123713363e+17,1.0,67230.0
393,6.116465123755306e+17,1.0,67230.0
394,6.116465183985505e+17,1.0,67230.0
395,6.116465184069395e+17,1.0,67230.0
396,6.116465184069398e+17,1.0,67230.0
397,6.116465184111332e+17,1.0,67230.0
398,6.116465184111334e+17,1.0,67230.0
399,6.116465184111336e+17,1.0,67230.0
400,6.116465184111336e+17,1.0,67230.0
401,6.116465244425425e+17,1.0,67230.0
402,6.116465244425426e+17,1.0,67230.0
403,6.116465244467365e+17,1.0,67230.0
404,6.116465244467368e+17,1.0,67230.0
405,6.116465244467369e+17,1.0,67230.0
406,6.116465244509307e+17,1.0,67230.0
407,3.519125937088451e+16,1.0,68000.0
408,3.519126304509369e+16,1.0,68000.0
409,3.5191263045093904e+16,1.0,68000.0
410,3.5191263045094028e+16,1.0,68000.0
411,3.5191263045094336e+16,1.0,68000.0
412,3.5191263045094464e+16,1.0,68000.0
413,3.5191263045094824e+16,1.0,68000.0
414,3.519126304509511e+16,1.0,68000.0
415,3.5191263049287068e+16,1.0,68000.0
416,3.5191263049287844e+16,1.0,68000.0
417,3.519126304928808e+16,1.0,68000.0
418,3.5191263053480096e+16,1.0,68000.0
419,3.5191263053480628e+16,1.0,68000.0
420,3.519126305348084e+16,1.0,68000.0
421,3.519126305348112e+16,1.0,68000.0
422,3.5191263053481496e+16,1.0,68000.0
423,3.519126305348187e+16,1.0,68000.0
424,3.519126670252456e+16,1.0,68000.0
425,3.519126670252522e+16,1.0,68000.0
426,3.519126670252596e+16,1.0,68000.0
427,3.5191266706718936e+16,1.0,68000.0
428,3.519126670671904e+16,1.0,68000.0
429,3.519126671091558e+16,1.0,68000.0
430,3.519126671091617e+16,1.0,68000.0
431,3.519126671510744e+16,1.0,68000.0
432,3.5191266715107668e+16,1.0,68000.0
433,3.519126671510792e+16,1.0,68000.0
434,3.519126671510809e+16,1.0,68000.0
435,3.5191266715108296e+16,1.0,68000.0
436,3.519126671510859e+16,1.0,68000.0
437,3.519126671510873e+16,1.0,68000.0
438,3.519126671510892e+16,1.0,68000.0
439,3.51912667151092e+16,1.0,68000.0
440,3.519126671510944e+16,1.0,68000.0
441,3.51912667151098e+16,1.0,68000.0
442,3.519126671510995e+16,1.0,68000.0
443,3.5191266715110564e+16,1.0,68000.0
444,3.5191266719301984e+16,1.0,68000.0
445,3.5191266719302376e+16,1.0,68000.0
446,3.5191266719302564e+16,1.0,68000.0
447,3.5191270343182204e+16,1.0,68000.0
448,3.519127034737583e+16,1.0,68000.0
449,3.5191270347376256e+16,1.0,68000.0
450,3.5191270347376388e+16,1.0,68000.0
451,3.519127034737645e+16,1.0,68000.0
452,3.519127034737657e+16,1.0,68000.0
453,3.5191270347376576e+16,1.0,68000.0
454,3.5191270347376804e+16,1.0,68000.0
455,3.519127034737684e+16,1.0,68000.0
456,3.5191270347377e+16,1.0,68000.0
457,3.5191270347377108e+16,1.0,68000.0
458,3.5191270347377324e+16,1.0,68000.0
459,3.519127034737739e+16,1.0,68000.0
460,3.5191270347377424e+16,1.0,68000.0
461,3.5191270347377564e+16,1.0,68000.0
462,3.5191270347377784e+16,1.0,68000.0
463,3.519127035156968e+16,1.0,68000.0
464,3.519127035156992e+16,1.0,68000.0
465,3.519127035157037e+16,1.0,68000.0
466,3.5191270351570664e+16,1.0,68000.0
467,3.5191270351570776e+16,1.0,68000.0
468,3.519127035157091e+16,1.0,68000.0
469,6.116520153485156e+17,1.0,68000.0
470,6.116520153485157e+17,1.0,68000.0
471,6.11652015348516e+17,1.0,68000.0
472,6.116520153527096e+17,1.0,68000.0
473,6.116520153527098e+17,1.0,68000.0
474,6.116520153569036e+17,1.0,68000.0
475,6.116520153569036e+17,1.0,68000.0
476,6.116520153569038e+17,1.0,68000.0
477,6.116520153569038e+17,1.0,68000.0
478,6.11652015356904e+17,1.0,68000.0
479,6.116520153569043e+17,1.0,68000.0
480,6.116520153569044e+17,1.0,68000.0
481,6.116520153610989e+17,1.0,68000.0
482,6.11652019005948e+17,1.0,68000.0
483,6.116520190059483e+17,1.0,68000.0
484,6.116520190059487e+17,1.0,68000.0
485,6.11652019018531e+17,1.0,68000.0
486,6.116520190185312e+17,1.0,68000.0
487,6.116520190185313e+17,1.0,68000.0
488,6.116520190185316e+17,1.0,68000.0
489,6.116520190185317e+17,1.0,68000.0
490,6.116520190185318e+17,1.0,68000.0
491,6.116520190185318e+17,1.0,68000.0
492,6.116520226466047e+17,1.0,68000.0
493,6.116520226507986e+17,1.0,68000.0
494,6.116520226507987e+17,1.0,68000.0
495,6.116520226507988e+17,1.0,68000.0
496,6.116520226507992e+17,1.0,68000.0
497,6.116520226549925e+17,1.0,68000.0
498,6.116520226549928e+17,1.0,68000.0
499,6.116520226549929e+17,1.0,68000.0
500,6.11652022654993e+17,1.0,68000.0
501,6.116520226549932e+17,1.0,68000.0
502,6.116520226549932e+17,1.0,68000.0
503,6.116520226549934e+17,1.0,68000.0
504,6.116520226549934e+17,1.0,68000.0
505,3.519119815501721e+16,1.0,66019.0
506,3.5191206145164684e+16,1.0,66019.0
507,3.5191210108784104e+16,1.0,66019.0
0,3.518616616881768e+16,2.0,65008.0
1,3.51861661688186e+16,2.0,65008.0
2,3.518616617301277e+16,2.0,65008.0
3,3.518617194437079e+16,2.0,65008.0
4,3.5186171944373304e+16,2.0,65008.0
5,3.518617194437364e+16,2.0,65008.0
6,3.518617194437372e+16,2.0,65008.0
7,3.518617194437432e+16,2.0,65008.0
8,3.518617194437507e+16,2.0,65008.0
9,3.518617194856471e+16,2.0,65008.0
10,3.518617194856471e+16,2.0,65008.0
11,3.5186171948564724e+16,2.0,65008.0
12,3.518617194856476e+16,2.0,65008.0
13,3.5186171948565224e+16,2.0,65008.0
14,3.518617194856532e+16,2.0,65008.0
15,3.518617194856691e+16,2.0,65008.0
16,3.5186171948567544e+16,2.0,65008.0
17,3.5186171948568244e+16,2.0,65008.0
18,3.5186171948568296e+16,2.0,65008.0
19,3.5186171948568816e+16,2.0,65008.0
20,3.518617194856888e+16,2.0,65008.0
21,3.5186171952758864e+16,2.0,65008.0
22,3.5186171952759864e+16,2.0,65008.0
23,3.518617195276083e+16,2.0,65008.0
24,3.5186171952761624e+16,2.0,65008.0
25,3.518617195276195e+16,2.0,65008.0
26,3.5186171952762084e+16,2.0,65008.0
27,3.518617195276225e+16,2.0,65008.0
28,3.5186171952763456e+16,2.0,65008.0
29,3.518617195276384e+16,2.0,65008.0
30,3.518617195276387e+16,2.0,65008.0
31,3.518617195695709e+16,2.0,65008.0
32,3.518617771154038e+16,2.0,65008.0
33,3.51861777157325e+16,2.0,65008.0
34,3.5186177715733828e+16,2.0,65008.0
35,3.518617771573387e+16,2.0,65008.0
36,3.518617771573441e+16,2.0,65008.0
37,3.518617771573447e+16,2.0,65008.0
38,3.518617771573449e+16,2.0,65008.0
39,3.5186177715734536e+16,2.0,65008.0
40,3.5186177715735264e+16,2.0,65008.0
41,3.51861777157366e+16,2.0,65008.0
42,3.518617771992688e+16,2.0,65008.0
43,3.51861777199274e+16,2.0,65008.0
44,3.5186177719928184e+16,2.0,65008.0
45,3.518617771992824e+16,2.0,65008.0
46,3.5186177719929068e+16,2.0,65008.0
47,3.518617771992952e+16,2.0,65008.0
48,3.518617771993021e+16,2.0,65008.0
49,3.5186177719930468e+16,2.0,65008.0
50,3.51861777199306e+16,2.0,65008.0
51,3.5186177719931136e+16,2.0,65008.0
52,3.518617772412189e+16,2.0,65008.0
53,3.518617772412216e+16,2.0,65008.0
54,3.5186177724122184e+16,2.0,65008.0
55,3.5186177724122524e+16,2.0,65008.0
56,3.5186177724122788e+16,2.0,65008.0
57,3.5186177724123136e+16,2.0,65008.0
58,3.5186177724123348e+16,2.0,65008.0
59,3.5186177724124776e+16,2.0,65008.0
60,3.5186177724125228e+16,2.0,65008.0
61,3.518617772831633e+16,2.0,65008.0
62,3.5186177728316904e+16,2.0,65008.0
63,3.518617772831693e+16,2.0,65008.0
64,3.518617772831756e+16,2.0,65008.0
65,3.518617772831788e+16,2.0,65008.0
66,3.5186177728318504e+16,2.0,65008.0
67,3.518617772831923e+16,2.0,65008.0
68,3.5186177728319428e+16,2.0,65008.0
69,3.5186177728319896e+16,2.0,65008.0
70,3.518617772832002e+16,2.0,65008.0
71,3.5186177732510148e+16,2.0,65008.0
72,3.5186177732510784e+16,2.0,65008.0
73,3.518617773251208e+16,2.0,65008.0
74,3.51861777325134e+16,2.0,65008.0
75,3.51861777325146e+16,2.0,65008.0
76,3.5186177732514784e+16,2.0,65008.0
77,3.518618347451364e+16,2.0,65008.0
78,3.518618347451427e+16,2.0,65008.0
79,3.518618347870625e+16,2.0,65008.0
80,3.518618347871108e+16,2.0,65008.0
81,3.5186183478711204e+16,2.0,65008.0
82,3.518618347871201e+16,2.0,65008.0
83,3.5186183478713004e+16,2.0,65008.0
84,3.5186183478715256e+16,2.0,65008.0
85,3.518618347871545e+16,2.0,65008.0
86,3.518618348290485e+16,2.0,65008.0
87,3.518618348290542e+16,2.0,65008.0
88,3.518618348290549e+16,2.0,65008.0
89,3.518618348290589e+16,2.0,65008.0
90,3.518618348290605e+16,2.0,65008.0
91,3.51861834829069e+16,2.0,65008.0
92,3.5186183487094896e+16,2.0,65008.0
93,3.518618348709524e+16,2.0,65008.0
94,3.5186183487095744e+16,2.0,65008.0
95,3.5186183487096e+16,2.0,65008.0
96,3.518618348709615e+16,2.0,65008.0
97,3.5186183487096188e+16,2.0,65008.0
98,3.5186183487096444e+16,2.0,65008.0
99,3.518618348709665e+16,2.0,65008.0
100,3.5186183487097584e+16,2.0,65008.0
101,3.5186183487097624e+16,2.0,65008.0
102,3.518618348709853e+16,2.0,65008.0
103,3.5186183491289296e+16,2.0,65008.0
104,3.518618349128993e+16,2.0,65008.0
105,3.518618349129022e+16,2.0,65008.0
106,3.5186183491290976e+16,2.0,65008.0
107,3.518618349129184e+16,2.0,65008.0
108,3.5186183491292304e+16,2.0,65008.0
109,3.5186183491292424e+16,2.0,65008.0
110,3.518618349129244e+16,2.0,65008.0
111,3.5186183495483428e+16,2.0,65008.0
112,3.5186183495483544e+16,2.0,65008.0
113,3.518618349548364e+16,2.0,65008.0
114,3.5186183495484176e+16,2.0,65008.0
115,3.5186183495484424e+16,2.0,65008.0
116,3.518618349548497e+16,2.0,65008.0
117,3.5186183495486428e+16,2.0,65008.0
118,3.518618349967848e+16,2.0,65008.0
119,3.51861834996791e+16,2.0,65008.0
120,3.5186183499679344e+16,2.0,65008.0
121,1.1529215046236332e+18,2.0,65008.0
122,1.1529215046236352e+18,2.0,65008.0
123,1.1529215046236352e+18,2.0,65008.0
124,1.1529215046236352e+18,2.0,65008.0
125,1.1529215046236352e+18,2.0,65008.0
126,1.1529215046236352e+18,2.0,65008.0
127,1.1529215046236352e+18,2.0,65008.0
128,1.1529215046236352e+18,2.0,65008.0
129,1.1529215046236352e+18,2.0,65008.0
130,1.1529215046236357e+18,2.0,65008.0
131,1.1529215046236357e+18,2.0,65008.0
132,1.1529215046236357e+18,2.0,65008.0
133,1.1529215046236357e+18,2.0,65008.0
134,1.1529215046236357e+18,2.0,65008.0
135,1.1529215046236357e+18,2.0,65008.0
136,1.1529215046236357e+18,2.0,65008.0
137,1.1529215046236357e+18,2.0,65008.0
138,1.1529215046236357e+18,2.0,65008.0
139,1.1529215046236357e+18,2.0,65008.0
140,1.1529215046236357e+18,2.0,65008.0
141,1.1529215046236357e+18,2.0,65008.0
142,1.1529215046236357e+18,2.0,65008.0
143,1.1529215046236357e+18,2.0,65008.0
144,1.1529215046236357e+18,2.0,65008.0
145,1.1529215046236357e+18,2.0,65008.0
146,1.1529215046236357e+18,2.0,65008.0
147,1.1529215046236357e+18,2.0,65008.0
148,1.1529215046236357e+18,2.0,65008.0
149,1.1529215046236357e+18,2.0,65008.0
150,1.1529215046236357e+18,2.0,65008.0
151,1.152921504623636e+18,2.0,65008.0
152,1.152921504623636e+18,2.0,65008.0
153,1.152921504623636e+18,2.0,65008.0
154,1.152921504623636e+18,2.0,65008.0
155,1.152921504623636e+18,2.0,65008.0
156,1.152921504623636e+18,2.0,65008.0
157,1.152921504623636e+18,2.0,65008.0
158,1.152921504623636e+18,2.0,65008.0
159,1.152921504623636e+18,2.0,65008.0
160,1.1529215046236362e+18,2.0,65008.0
0,3.519119412009629e+16,3.0,66019.0
1,3.51911941200971e+16,3.0,66019.0
2,3.5191194120098024e+16,3.0,66019.0
3,3.519119412428949e+16,3.0,66019.0
4,3.519119412428977e+16,3.0,66019.0
5,3.5191194124290344e+16,3.0,66019.0
6,3.519119412429036e+16,3.0,66019.0
7,3.519119412429102e+16,3.0,66019.0
8,3.519119412429128e+16,3.0,66019.0
9,3.5191194124291384e+16,3.0,66019.0
10,3.5191194124291704e+16,3.0,66019.0
11,3.5191194124291724e+16,3.0,66019.0
12,3.51911941242918e+16,3.0,66019.0
13,3.5191194124292108e+16,3.0,66019.0
14,3.5191194124292136e+16,3.0,66019.0
15,3.519119814662561e+16,3.0,66019.0
16,3.519119814662583e+16,3.0,66019.0
17,3.519119814662584e+16,3.0,66019.0
18,3.519119814662597e+16,3.0,66019.0
19,6.116519464277126e+17,3.0,66019.0
20,6.116519504500493e+17,3.0,66019.0
21,3.519119412429027e+16,3.0,66019.0
22,3.519119412429252e+16,3.0,66019.0
23,6.116519464277123e+17,3.0,66019.0
24,6.116519464277124e+17,3.0,66019.0
0,3.5186171910817416e+16,4.0,65008.0
1,3.518576074319809e+16,4.0,66014.0
2,3.5191181918865464e+16,4.0,66019.0
3,3.5191190060009704e+16,4.0,66019.0
4,3.5186189224913136e+16,4.0,65008.0
5,3.518619497110393e+16,4.0,65008.0
6,3.5186194971105164e+16,4.0,65008.0
7,3.5186194971106044e+16,4.0,65008.0
8,3.5186194975316376e+16,4.0,65008.0
9,3.5186194975319096e+16,4.0,65008.0
10,3.51861949753228e+16,4.0,65008.0
11,3.518620070471677e+16,4.0,65008.0
12,3.5186200708908744e+16,4.0,65008.0
13,3.5186200708910424e+16,4.0,65008.0
14,3.518620070891079e+16,4.0,65008.0
15,3.518620071310428e+16,4.0,65008.0
16,3.5186200713104736e+16,4.0,65008.0
17,3.518620071729748e+16,4.0,65008.0
18,3.518620071729784e+16,4.0,65008.0
19,3.518620071729806e+16,4.0,65008.0
20,3.5186206438330336e+16,4.0,65008.0
21,3.5186206442520844e+16,4.0,65008.0
22,3.518620644252112e+16,4.0,65008.0
23,3.518620644252228e+16,4.0,65008.0
24,3.5186206442524124e+16,4.0,65008.0
25,3.5186206446719588e+16,4.0,65008.0
26,3.5186212163552064e+16,4.0,65008.0
27,3.518621216355448e+16,4.0,65008.0
28,3.518621216355514e+16,4.0,65008.0
29,3.518621216774621e+16,4.0,65008.0
30,3.518621216774737e+16,4.0,65008.0
31,3.518621216774836e+16,4.0,65008.0
32,3.5186212171941104e+16,4.0,65008.0
33,3.5186217880388164e+16,4.0,65008.0
34,1.1529215046236342e+18,4.0,65008.0
35,1.1529215046236347e+18,4.0,65008.0
36,1.152921504623635e+18,4.0,65008.0
37,1.152921504623635e+18,4.0,65008.0
38,1.152921504623635e+18,4.0,65008.0
39,1.1529215046236352e+18,4.0,65008.0
40,1.1529215046236352e+18,4.0,65008.0
41,1.1529215046236352e+18,4.0,65008.0
42,1.152921504623637e+18,4.0,65008.0
43,1.152921504623637e+18,4.0,65008.0
44,1.152921504623637e+18,4.0,65008.0
45,1.1529215046236372e+18,4.0,65008.0
0,3.518620073827158e+16,5.0,65008.0
1,3.5186206467689144e+16,5.0,65008.0
2,3.518620646769076e+16,5.0,65008.0
3,3.518620647188313e+16,5.0,65008.0
4,3.5186206471883744e+16,5.0,65008.0
5,6.116469472871057e+17,5.0,65008.0
6,6.116469472871058e+17,5.0,65008.0
7,6.116469472871063e+17,5.0,65008.0
8,6.116469472871064e+17,5.0,65008.0
9,6.116469472871067e+17,5.0,65008.0
10,6.116469472913005e+17,5.0,65008.0
11,6.116469472913007e+17,5.0,65008.0
12,6.11646947291301e+17,5.0,65008.0
13,6.116469472954954e+17,5.0,65008.0
14,6.116469530291078e+17,5.0,65008.0
15,6.116469530291078e+17,5.0,65008.0
16,6.116469530291084e+17,5.0,65008.0
17,6.116469530291084e+17,5.0,65008.0
18,6.116469530291086e+17,5.0,65008.0
19,6.116469530291086e+17,5.0,65008.0
20,6.116469530291086e+17,5.0,65008.0
21,6.11646953033302e+17,5.0,65008.0
22,6.116469530333021e+17,5.0,65008.0
23,6.116469530333023e+17,5.0,65008.0
24,6.116469530333023e+17,5.0,65008.0
25,6.116469530333024e+17,5.0,65008.0
26,6.116469530333025e+17,5.0,65008.0
27,6.116469530333025e+17,5.0,65008.0
28,6.116469530333025e+17,5.0,65008.0
29,6.116469530333027e+17,5.0,65008.0
30,6.116469530333027e+17,5.0,65008.0
31,6.116469530333028e+17,5.0,65008.0
32,6.11646953033303e+17,5.0,65008.0
33,6.116469530333032e+17,5.0,65008.0
34,6.116469530374966e+17,5.0,65008.0
35,6.11646953037497e+17,5.0,65008.0
36,6.116469530374975e+17,5.0,65008.0
37,6.116469530374975e+17,5.0,65008.0
38,6.116469530416918e+17,5.0,65008.0
39,6.116469530416918e+17,5.0,65008.0
40,6.116469587627214e+17,5.0,65008.0
41,6.116469587669156e+17,5.0,65008.0
42,6.11646958766916e+17,5.0,65008.0
43,6.116469587669162e+17,5.0,65008.0
44,6.116469587669166e+17,5.0,65008.0
45,6.1164695877111e+17,5.0,65008.0
46,6.1164695877111e+17,5.0,65008.0
47,6.116469587711101e+17,5.0,65008.0
48,6.116469587711103e+17,5.0,65008.0
49,6.116469587711104e+17,5.0,65008.0
50,6.116469587711104e+17,5.0,65008.0
51,6.116469587711107e+17,5.0,65008.0
52,6.116469587711107e+17,5.0,65008.0
53,6.116469587711108e+17,5.0,65008.0
54,6.116469587711109e+17,5.0,65008.0
55,6.116469587711109e+17,5.0,65008.0
56,6.116469587711109e+17,5.0,65008.0
57,6.116469587753044e+17,5.0,65008.0
58,6.116469587753046e+17,5.0,65008.0
59,6.116469587753047e+17,5.0,65008.0
60,6.11646958775305e+17,5.0,65008.0
61,6.116469587753051e+17,5.0,65008.0
62,6.116469644921407e+17,5.0,65008.0
63,6.116469644921412e+17,5.0,65008.0
64,6.11646964496335e+17,5.0,65008.0
65,6.11646964496335e+17,5.0,65008.0
66,6.11646964496335e+17,5.0,65008.0
67,6.116469644963351e+17,5.0,65008.0
68,6.116469644963351e+17,5.0,65008.0
69,6.116469644963351e+17,5.0,65008.0
70,6.116469644963351e+17,5.0,65008.0
71,6.116469644963352e+17,5.0,65008.0
72,6.116469644963352e+17,5.0,65008.0
73,6.116469644963355e+17,5.0,65008.0
74,6.116469644963355e+17,5.0,65008.0
75,6.116469645005293e+17,5.0,65008.0
76,6.116469645005295e+17,5.0,65008.0
77,6.116469645005297e+17,5.0,65008.0
78,6.116469645005297e+17,5.0,65008.0
79,6.116469645005299e+17,5.0,65008.0
80,6.116469702089773e+17,5.0,65008.0
81,6.116469702089774e+17,5.0,65008.0
82,6.116469702089775e+17,5.0,65008.0
83,6.116469702089778e+17,5.0,65008.0
84,6.116469702131717e+17,5.0,65008.0
85,1.1529215046236365e+18,5.0,65008.0
86,1.1529215046236365e+18,5.0,65008.0
87,1.152921504623637e+18,5.0,65008.0
88,6.116469242394054e+17,5.0,65008.0
